Homework 8
…
bikes %>% 
  mutate(rowNum = row.names(bikes)) %>%  # save original row numbers 
  # select potential influential pts
  filter(abs(dffits) > 2 * sqrt(length(bikes_poisson$coefficients) / 
                                  length(dffits))) %>%
  arrange(desc(abs(dffits)))

## # A tibble: 52 × 11
##    season yr    holiday workin…¹ weath…²  temp   hum winds…³   cnt dffits rowNum
##    <fct>  <fct>   <dbl>    <dbl> <fct>   <dbl> <dbl>   <dbl> <dbl>  <dbl> <chr> 
##  1 Winter 2012        0        1 Light … 0.44  0.88   0.358     22 -1.56  668   
##  2 Winter 2012        1        0 Clear   0.34  0.580  0.0529  2425 -0.919 692   
##  3 Fall   2011        1        0 Misty   0.727 0.638  0.0815  6043  0.704 185   
##  4 Fall   2012        0        0 Light … 0.596 0.865  0.213   4459  0.694 568   
##  5 Spring 2012        0        0 Misty   0.514 0.756  0.111   7836  0.621 442   
##  6 Fall   2012        0        0 Clear   0.862 0.492  0.164   4840 -0.573 554   
##  7 Winter 2012        0        1 Misty   0.318 0.825  0.213   1096 -0.570 669   
##  8 Summer 2012        0        0 Light … 0.397 0.835  0.345   1027 -0.554 478   
##  9 Winter 2011        1        0 Clear   0.373 0.549  0.167   1495 -0.542 328   
## 10 Winter 2012        0        0 Clear   0.278 0.405  0.377   2277 -0.507 694   
## # … with 42 more rows, and abbreviated variable names ¹​workingday, ²​weathersit,
## #   ³​windspeed
…
