Homework 7
…
dia %>% 
  mutate(rowNum = row.names(dia)) %>%  # save original row numbers 
  # select potential influential pts
  filter(abs(dffits) > 2 * sqrt(length(dia_lm$coefficients) / 
                                  length(dffits))) %>%
  arrange(desc(abs(dffits)))

## # A tibble: 29 × 11
##    pregnant glucose diastolic triceps insulin   bmi pedig…¹   age diabe…² dffits
##       <dbl>   <dbl>     <dbl>   <dbl>   <dbl> <dbl>   <dbl> <dbl> <fct>    <dbl>
##  1        9     134        74      33      60  25.9   0.46     81 0       -0.541
##  2        3     123       100      35     240  57.3   0.88     22 0       -0.402
##  3        1      88        30      42      99  55     0.496    26 1        0.383
##  4        4     197        70      39     744  36.7   2.33     31 0       -0.357
##  5        0     165        90      33     680  52.3   0.427    23 0       -0.345
##  6        1     193        50      16     375  25.9   0.655    24 0       -0.329
##  7        7     142        60      33     190  28.8   0.687    61 0       -0.326
##  8        3      80        82      31      70  34.2   1.29     27 1        0.307
##  9        0     165        76      43     255  47.9   0.259    26 0       -0.296
## 10        0     128        68      19     180  30.5   1.39     25 1        0.294
## # … with 19 more rows, 1 more variable: rowNum <chr>, and abbreviated variable
## #   names ¹​pedigree, ²​diabetes
…
